{
  "general": {
    "locale": "de-CH"
  },
  "languages": {
    "translations": {
      "de": ["i18n/de.json", "Mock/de.json"]
    },
    "defaultLanguage": "de"
  },
  "themes": {
    "url": "Mock/themes.json",
    "defaultTheme": "Geokategorien"
  },
  "basemaps": {
    "defaultBasemap": "ch.swisstopo.pixelkarte-grau",
    "OSM": true,
    "SwissTopoVectorTiles": true
  },
  "search": {
    "url": "https://map.geo.llv.li/search?limit=50&partitionlimit=11&interface=desktop&query=###SEARCHTERM###",
    "objectPreview": true,
    "layerPreview": true
  },
  "print": {
    "url": "https://map.geo.llv.li/printproxy/",
    "defaultLayout": "1 A4 Hochformat"
  },
  "share": {
    "service": "lstu",
    "createUrl": "https://lstu.fr/a"
  },
  "projections": {
    "EPSG:3857": "W-M",
    "EPSG:4326": "WGS84",
    "EPSG:2056": "LV95"
  },
  "map": {
    "srid": "EPSG:2056",
    "scales": [
      200000, 150000, 100000, 50000, 35000, 25000, 20000, 15000, 10000, 5000, 3500, 2000, 1500, 1000, 500, 350, 250, 150
    ],
    "startPosition": "2760000,1225000",
    "startZoom": "1",
    "maxExtent": "2500000,1150000,3020000,1300000"
  },
  "map3d": {
    "terrainUrl": "https://terrain100.geo.admin.ch/1.0.0/ch.swisstopo.terrain.3d/",
    "terrainImagery": {
      "url": "https://wmts20.geo.admin.ch/1.0.0/ch.swisstopo.swissimage-product/default/current/4326/{z}/{x}/{y}.jpeg",
      "minLoD": 8,
      "maxLoD": 17,
      "coverageArea": [5.013926957923385, 45.35600133779394, 11.477436312994008, 48.27502358353741]
    },
    "tilesetsUrls": ["https://vectortiles100.geo.admin.ch/3d-tiles/ch.swisstopo.swisstlm3d.3d/20201020/tileset.json"],
    "maximumZoomDistance": 25000
  }
}
