{
  "general": {
    "locale": "de-CH"
  },
  "languages": {
    "translations": {
      "de": ["i18n/de.json", "https://map.geo.sz.ch/static/dummy/de.json"]
    },
    "defaultLanguage": "de"
  },
  "themes": {
    "url": "https://map.geo.sz.ch/themes?background=background&interface=desktop",
    "defaultTheme": ""
  },
  "basemaps": {
    "defaultBasemap": "Landeskarte (farbig)",
    "OSM": true,
    "SwissTopoVectorTiles": true
  },
  "treeview": {
    "hideLegendWhenLayerIsDeactivated": false
  },
  "search": {
    "url": "https://map.geo.sz.ch/search?limit=30&partitionlimit=5&interface=desktop&query=###SEARCHTERM###",
    "objectPreview": true,
    "layerPreview": true
  },
  "print": {
    "url": "https://map.geo.sz.ch/printproxy/",
    "defaultLayout": "1 A4 portrait"
  },
  "share": {
    "service": "lstu",
    "createUrl": "https://lstu.fr/a"
  },
  "projections": {
    "EPSG:3857": "W-M",
    "EPSG:4326": "WGS84",
    "EPSG:2056": "LV95"
  },
  "map": {
    "srid": "EPSG:2056",
    "startZoom": "0",
    "startPosition": "2690600,1213375",
    "maxExtent": "2500000,1100000,2800000,1300000",
    "scales": [200000, 75000, 40000, 20000, 10000, 7500, 5000, 3500, 2000, 1000, 500, 200]
  },
  "map3d": {
    "terrainUrl": "https://terrain100.geo.admin.ch/1.0.0/ch.swisstopo.terrain.3d/",
    "terrainImagery": {
      "url": "https://wmts20.geo.admin.ch/1.0.0/ch.swisstopo.swissimage-product/default/current/4326/{z}/{x}/{y}.jpeg",
      "minLoD": 8,
      "maxLoD": 17,
      "coverageArea": [5.013926957923385, 45.35600133779394, 11.477436312994008, 48.27502358353741]
    },
    "tilesetsUrls": ["https://vectortiles100.geo.admin.ch/3d-tiles/ch.swisstopo.swisstlm3d.3d/20201020/tileset.json"],
    "maximumZoomDistance": 25000
  }
}
